/Users/usr/Workspace/Bitbucket/generalvideoparser/GeneralVideoParser/src/main/java/com/facebook/command/ExecuteResult.java
/Users/usr/Workspace/Bitbucket/generalvideoparser/GeneralVideoParser/src/main/java/com/facebook/parse/ParserCommandExecutor.java
/Users/usr/Workspace/Bitbucket/generalvideoparser/GeneralVideoParser/src/main/java/com/facebook/shell/ShellHelper.java
/Users/usr/Workspace/Bitbucket/generalvideoparser/GeneralVideoParser/src/main/java/com/facebook/utils/Utils.java
/Users/usr/Workspace/Bitbucket/generalvideoparser/GeneralVideoParser/src/main/java/com/facebook/command/DownloadCommand.java
/Users/usr/Workspace/Bitbucket/generalvideoparser/GeneralVideoParser/src/main/java/com/facebook/command/VideoConcatCommand.java
/Users/usr/Workspace/Bitbucket/generalvideoparser/GeneralVideoParser/src/main/java/com/facebook/command/Executable.java
/Users/usr/Workspace/Bitbucket/generalvideoparser/GeneralVideoParser/src/main/java/com/facebook/command/Status.java
/Users/usr/Workspace/Bitbucket/generalvideoparser/GeneralVideoParser/src/main/java/com/facebook/command/VideoInformationCommand.java
/Users/usr/Workspace/Bitbucket/generalvideoparser/GeneralVideoParser/src/main/java/com/facebook/command/CommandBuilder.java
/Users/usr/Workspace/Bitbucket/generalvideoparser/GeneralVideoParser/src/main/java/com/facebook/parse/ParseResult.java
/Users/usr/Workspace/Bitbucket/generalvideoparser/GeneralVideoParser/src/main/java/com/facebook/utils/Constants.java
/Users/usr/Workspace/Bitbucket/generalvideoparser/GeneralVideoParser/src/main/java/com/facebook/parse/VideoParser.java
/Users/usr/Workspace/Bitbucket/generalvideoparser/GeneralVideoParser/src/main/java/com/facebook/command/CropImageCommand.java
/Users/usr/Workspace/Bitbucket/generalvideoparser/GeneralVideoParser/src/main/java/com/facebook/Test.java
/Users/usr/Workspace/Bitbucket/generalvideoparser/GeneralVideoParser/src/main/java/com/facebook/command/VideoFrame.java
/Users/usr/Workspace/Bitbucket/generalvideoparser/GeneralVideoParser/src/main/java/com/facebook/command/VideoScaleCommand.java
